﻿{
  "Merchant": "",
  "Lender": "BEN",
  "RateType": "VAR",
  "RepaymentType": "PI",
  "PropertyUsage": "INV",
  "CustomerRate": 0,
  "LoanTerm": 20,
  "BorrowingAmount": 600000,
  "RateTerm": null
}

